<?xml version="1.0" encoding="UTF-8" standalone="no"?>
<svg
   xmlns:dc="http://purl.org/dc/elements/1.1/"
   xmlns:cc="http://creativecommons.org/ns#"
   xmlns:rdf="http://www.w3.org/1999/02/22-rdf-syntax-ns#"
   xmlns:svg="http://www.w3.org/2000/svg"
   xmlns="http://www.w3.org/2000/svg"
   xmlns:xlink="http://www.w3.org/1999/xlink"
   xmlns:sodipodi="http://sodipodi.sourceforge.net/DTD/sodipodi-0.dtd"
   xmlns:inkscape="http://www.inkscape.org/namespaces/inkscape"
   width="141"
   height="141"
   version="1.1"
   viewBox="0 0 141 141"
   id="svg2"
   sodipodi:docname="game.svg"
   inkscape:version="0.92.5 (2060ec1f9f, 2020-04-08)">
  <metadata
     id="metadata8">
    <rdf:RDF>
      <cc:Work
         rdf:about="">
        <dc:format>image/svg+xml</dc:format>
        <dc:type
           rdf:resource="http://purl.org/dc/dcmitype/StillImage" />
        <dc:title></dc:title>
      </cc:Work>
    </rdf:RDF>
  </metadata>
  <defs
     id="defs6">
    <clipPath
       id="clipPath16"
       clipPathUnits="userSpaceOnUse">
      <path
         inkscape:connector-curvature="0"
         id="path18"
         d="M 0,172.02 H 172.02 V 0 H 0 Z" />
    </clipPath>
    <linearGradient
       id="linearGradient206"
       spreadMethod="pad"
       gradientTransform="matrix(20.823595,0,0,-20.823595,130.58289,87.014198)"
       gradientUnits="userSpaceOnUse"
       y2="0"
       x2="1"
       y1="0"
       x1="0">
      <stop
         id="stop208"
         offset="0"
         style="stop-opacity:1;stop-color:#ef4e26" />
      <stop
         id="stop210"
         offset="0.5"
         style="stop-opacity:1;stop-color:#e5e543" />
      <stop
         id="stop212"
         offset="1"
         style="stop-opacity:1;stop-color:#ef4e26" />
    </linearGradient>
    <linearGradient
       id="linearGradient228"
       spreadMethod="pad"
       gradientTransform="matrix(10.411851,0,0,-10.411851,137.44432,90.499291)"
       gradientUnits="userSpaceOnUse"
       y2="0"
       x2="1"
       y1="0"
       x1="0">
      <stop
         id="stop230"
         offset="0"
         style="stop-opacity:1;stop-color:#ef4e26" />
      <stop
         id="stop232"
         offset="0.4"
         style="stop-opacity:1;stop-color:#e5e543" />
      <stop
         id="stop234"
         offset="1"
         style="stop-opacity:1;stop-color:#fbae1f" />
    </linearGradient>
    <linearGradient
       id="linearGradient250"
       spreadMethod="pad"
       gradientTransform="matrix(10.412209,0,0,-10.412209,134.26407,83.311134)"
       gradientUnits="userSpaceOnUse"
       y2="0"
       x2="1"
       y1="0"
       x1="0">
      <stop
         id="stop252"
         offset="0"
         style="stop-opacity:1;stop-color:#fbae1f" />
      <stop
         id="stop254"
         offset="0.6"
         style="stop-opacity:1;stop-color:#e5e543" />
      <stop
         id="stop256"
         offset="1"
         style="stop-opacity:1;stop-color:#ef4e26" />
    </linearGradient>
    <clipPath
       id="clipPath264"
       clipPathUnits="userSpaceOnUse">
      <path
         inkscape:connector-curvature="0"
         id="path266"
         d="M 0,172.02 H 172.02 V 0 H 0 Z" />
    </clipPath>
    <clipPath
       id="clipPath5332">
      <path
         d="M 242.805,695.386 H 579.33 V 553.03 H 242.805 Z"
         id="path5334"
         inkscape:connector-curvature="0" />
    </clipPath>
    <radialGradient
       cx="0"
       cy="0"
       r="1"
       fx="0"
       fy="0"
       id="radialGradient6072"
       xlink:href="#radialGradient5340"
       gradientUnits="userSpaceOnUse"
       gradientTransform="matrix(207.42525,-21.509659,-19.788208,-190.87936,415.48047,501.28809)"
       spreadMethod="pad" />
    <radialGradient
       cx="0"
       cy="0"
       r="1"
       fx="0"
       fy="0"
       id="radialGradient5340"
       gradientUnits="userSpaceOnUse"
       gradientTransform="matrix(207.42525,-21.509659,-19.788208,-190.87936,415.48047,501.28809)"
       spreadMethod="pad">
      <stop
         id="stop5342"
         style="stop-color:#ffffff;stop-opacity:1"
         offset="0" />
      <stop
         id="stop5344"
         style="stop-color:#000000;stop-opacity:1"
         offset="0.95506299" />
      <stop
         id="stop5346"
         style="stop-color:#000000;stop-opacity:1"
         offset="0.95506299" />
      <stop
         id="stop5348"
         style="stop-color:#000000;stop-opacity:1"
         offset="1" />
    </radialGradient>
    <clipPath
       id="clipPath5368">
      <path
         d="M 481.117,609.926 H 625.518 V 355.03 H 481.117 Z"
         id="path5370"
         inkscape:connector-curvature="0" />
    </clipPath>
    <radialGradient
       cx="0"
       cy="0"
       r="1"
       fx="0"
       fy="0"
       id="radialGradient6074"
       xlink:href="#radialGradient5376"
       gradientUnits="userSpaceOnUse"
       gradientTransform="matrix(-59.413574,-151.80127,-183.85619,71.964798,430.58789,518.58398)"
       spreadMethod="pad" />
    <radialGradient
       cx="0"
       cy="0"
       r="1"
       fx="0"
       fy="0"
       id="radialGradient5376"
       gradientUnits="userSpaceOnUse"
       gradientTransform="matrix(-59.413574,-151.80127,-183.85619,71.964798,430.58789,518.58398)"
       spreadMethod="pad">
      <stop
         id="stop5378"
         style="stop-color:#ffffff;stop-opacity:1"
         offset="0" />
      <stop
         id="stop5380"
         style="stop-color:#000000;stop-opacity:1"
         offset="0.95506299" />
      <stop
         id="stop5382"
         style="stop-color:#000000;stop-opacity:1"
         offset="0.95506299" />
      <stop
         id="stop5384"
         style="stop-color:#000000;stop-opacity:1"
         offset="1" />
    </radialGradient>
    <linearGradient
       x1="0"
       y1="0"
       x2="1"
       y2="0"
       id="linearGradient6076"
       xlink:href="#linearGradient5412"
       gradientUnits="userSpaceOnUse"
       gradientTransform="matrix(112.95387,139.48642,139.48642,-112.95386,242.33008,465.07959)"
       spreadMethod="pad" />
    <linearGradient
       x1="0"
       y1="0"
       x2="1"
       y2="0"
       id="linearGradient5412"
       gradientUnits="userSpaceOnUse"
       gradientTransform="matrix(112.95387,139.48642,139.48642,-112.95386,242.33008,465.07959)"
       spreadMethod="pad">
      <stop
         id="stop5414"
         style="stop-color:#ffff00;stop-opacity:1"
         offset="0" />
      <stop
         id="stop5416"
         style="stop-color:#9dff00;stop-opacity:1"
         offset="0.5" />
      <stop
         id="stop5418"
         style="stop-color:#458c41;stop-opacity:1"
         offset="1" />
    </linearGradient>
    <linearGradient
       x1="0"
       y1="0"
       x2="1"
       y2="0"
       id="linearGradient6078"
       xlink:href="#linearGradient5434"
       gradientUnits="userSpaceOnUse"
       gradientTransform="matrix(138.34399,-205.10341,-205.10341,-138.34399,228.25391,725.86377)"
       spreadMethod="pad" />
    <linearGradient
       x1="0"
       y1="0"
       x2="1"
       y2="0"
       id="linearGradient5434"
       gradientUnits="userSpaceOnUse"
       gradientTransform="matrix(138.34399,-205.10341,-205.10341,-138.34399,228.25391,725.86377)"
       spreadMethod="pad">
      <stop
         id="stop5436"
         style="stop-color:#4a7d62;stop-opacity:1"
         offset="0" />
      <stop
         id="stop5438"
         style="stop-color:#000000;stop-opacity:1"
         offset="1" />
    </linearGradient>
    <linearGradient
       x1="0"
       y1="0"
       x2="1"
       y2="0"
       id="linearGradient6080"
       xlink:href="#linearGradient5454"
       gradientUnits="userSpaceOnUse"
       gradientTransform="matrix(221.12239,149.14896,149.14896,-221.12239,150.16309,295.60059)"
       spreadMethod="pad" />
    <linearGradient
       x1="0"
       y1="0"
       x2="1"
       y2="0"
       id="linearGradient5454"
       gradientUnits="userSpaceOnUse"
       gradientTransform="matrix(221.12239,149.14896,149.14896,-221.12239,150.16309,295.60059)"
       spreadMethod="pad">
      <stop
         id="stop5456"
         style="stop-color:#ffff00;stop-opacity:1"
         offset="0" />
      <stop
         id="stop5458"
         style="stop-color:#9dff00;stop-opacity:1"
         offset="0.421341" />
      <stop
         id="stop5460"
         style="stop-color:#9dff00;stop-opacity:1"
         offset="0.421341" />
      <stop
         id="stop5462"
         style="stop-color:#5c5c5c;stop-opacity:1"
         offset="1" />
    </linearGradient>
    <linearGradient
       x1="0"
       y1="0"
       x2="1"
       y2="0"
       id="linearGradient6082"
       xlink:href="#linearGradient5478"
       gradientUnits="userSpaceOnUse"
       gradientTransform="matrix(179.03551,310.09863,310.09863,-179.03551,150.04297,206.6123)"
       spreadMethod="pad" />
    <linearGradient
       x1="0"
       y1="0"
       x2="1"
       y2="0"
       id="linearGradient5478"
       gradientUnits="userSpaceOnUse"
       gradientTransform="matrix(179.03551,310.09863,310.09863,-179.03551,150.04297,206.6123)"
       spreadMethod="pad">
      <stop
         id="stop5480"
         style="stop-color:#4a7d62;stop-opacity:1"
         offset="0" />
      <stop
         id="stop5482"
         style="stop-color:#182920;stop-opacity:1"
         offset="1" />
    </linearGradient>
    <linearGradient
       x1="0"
       y1="0"
       x2="1"
       y2="0"
       id="linearGradient6084"
       xlink:href="#linearGradient5498"
       gradientUnits="userSpaceOnUse"
       gradientTransform="matrix(-123.55646,119.31706,119.31706,123.55647,588.98633,485.63184)"
       spreadMethod="pad" />
    <linearGradient
       x1="0"
       y1="0"
       x2="1"
       y2="0"
       id="linearGradient5498"
       gradientUnits="userSpaceOnUse"
       gradientTransform="matrix(-123.55646,119.31706,119.31706,123.55647,588.98633,485.63184)"
       spreadMethod="pad">
      <stop
         id="stop5500"
         style="stop-color:#ffff00;stop-opacity:1"
         offset="0" />
      <stop
         id="stop5502"
         style="stop-color:#9dff00;stop-opacity:1"
         offset="0.47752401" />
      <stop
         id="stop5504"
         style="stop-color:#4a4a4a;stop-opacity:1"
         offset="1" />
    </linearGradient>
    <linearGradient
       x1="0"
       y1="0"
       x2="1"
       y2="0"
       id="linearGradient6086"
       xlink:href="#linearGradient5520"
       gradientUnits="userSpaceOnUse"
       gradientTransform="matrix(19.704803,160.48279,160.48279,-19.704803,528.9707,540.91943)"
       spreadMethod="pad" />
    <linearGradient
       x1="0"
       y1="0"
       x2="1"
       y2="0"
       id="linearGradient5520"
       gradientUnits="userSpaceOnUse"
       gradientTransform="matrix(19.704803,160.48279,160.48279,-19.704803,528.9707,540.91943)"
       spreadMethod="pad">
      <stop
         id="stop5522"
         style="stop-color:#000000;stop-opacity:1"
         offset="0" />
      <stop
         id="stop5524"
         style="stop-color:#45755c;stop-opacity:1"
         offset="0.87078899" />
      <stop
         id="stop5526"
         style="stop-color:#45755c;stop-opacity:1"
         offset="1" />
    </linearGradient>
    <linearGradient
       x1="0"
       y1="0"
       x2="1"
       y2="0"
       id="linearGradient6088"
       xlink:href="#linearGradient5542"
       gradientUnits="userSpaceOnUse"
       gradientTransform="matrix(57.405304,123.10608,123.10608,-57.405304,544.34863,308.62207)"
       spreadMethod="pad" />
    <linearGradient
       x1="0"
       y1="0"
       x2="1"
       y2="0"
       id="linearGradient5542"
       gradientUnits="userSpaceOnUse"
       gradientTransform="matrix(57.405304,123.10608,123.10608,-57.405304,544.34863,308.62207)"
       spreadMethod="pad">
      <stop
         id="stop5544"
         style="stop-color:#ffff00;stop-opacity:1"
         offset="0" />
      <stop
         id="stop5546"
         style="stop-color:#aeff00;stop-opacity:1"
         offset="0.41572601" />
      <stop
         id="stop5548"
         style="stop-color:#575757;stop-opacity:1"
         offset="1" />
    </linearGradient>
    <linearGradient
       x1="0"
       y1="0"
       x2="1"
       y2="0"
       id="linearGradient6090"
       xlink:href="#linearGradient5564"
       gradientUnits="userSpaceOnUse"
       gradientTransform="matrix(-55.596222,315.30197,315.30197,55.596237,625.08789,206.5918)"
       spreadMethod="pad" />
    <linearGradient
       x1="0"
       y1="0"
       x2="1"
       y2="0"
       id="linearGradient5564"
       gradientUnits="userSpaceOnUse"
       gradientTransform="matrix(-55.596222,315.30197,315.30197,55.596237,625.08789,206.5918)"
       spreadMethod="pad">
      <stop
         id="stop5566"
         style="stop-color:#4a7d62;stop-opacity:1"
         offset="0" />
      <stop
         id="stop5568"
         style="stop-color:#000000;stop-opacity:1"
         offset="0.83146697" />
      <stop
         id="stop5570"
         style="stop-color:#000000;stop-opacity:1"
         offset="0.83146697" />
      <stop
         id="stop5572"
         style="stop-color:#000000;stop-opacity:1"
         offset="1" />
    </linearGradient>
    <radialGradient
       inkscape:collect="always"
       xlink:href="#linearGradient3037"
       id="radialGradient3528"
       gradientUnits="userSpaceOnUse"
       gradientTransform="matrix(0,1.8458161,-1.5756108,0,41.660507,-29.484015)"
       cx="23.689831"
       cy="12.765525"
       fx="23.689831"
       fy="12.765525"
       r="14.35" />
    <linearGradient
       inkscape:collect="always"
       id="linearGradient3037">
      <stop
         style="stop-color:#ffffff;stop-opacity:1;"
         offset="0"
         id="stop3039" />
      <stop
         style="stop-color:#ffffff;stop-opacity:0;"
         offset="1"
         id="stop3041" />
    </linearGradient>
    <radialGradient
       inkscape:collect="always"
       xlink:href="#linearGradient3037"
       id="radialGradient3530"
       gradientUnits="userSpaceOnUse"
       gradientTransform="matrix(0,1.152526,-0.98381007,0,34.10586,-13.060091)"
       cx="23.689831"
       cy="12.765525"
       fx="23.689831"
       fy="12.765525"
       r="14.35" />
    <linearGradient
       inkscape:collect="always"
       xlink:href="#linearGradient3992"
       id="linearGradient8908"
       gradientUnits="userSpaceOnUse"
       x1="17.160885"
       y1="21.540094"
       x2="13.205508"
       y2="16.899706" />
    <linearGradient
       inkscape:collect="always"
       id="linearGradient3992">
      <stop
         style="stop-color:#97ca43;stop-opacity:1;"
         offset="0"
         id="stop3994" />
      <stop
         style="stop-color:#97ca43;stop-opacity:0;"
         offset="1"
         id="stop3996" />
    </linearGradient>
    <linearGradient
       inkscape:collect="always"
       xlink:href="#linearGradient3356"
       id="linearGradient8910"
       gradientUnits="userSpaceOnUse"
       x1="11.656183"
       y1="18.171713"
       x2="13.586248"
       y2="19.23148" />
    <linearGradient
       inkscape:collect="always"
       id="linearGradient3356">
      <stop
         style="stop-color:#458f41;stop-opacity:1;"
         offset="0"
         id="stop3358" />
      <stop
         style="stop-color:#458f41;stop-opacity:0;"
         offset="1"
         id="stop3360" />
    </linearGradient>
    <linearGradient
       inkscape:collect="always"
       xlink:href="#linearGradient3366"
       id="linearGradient8912"
       gradientUnits="userSpaceOnUse"
       x1="19.902828"
       y1="19.23148"
       x2="14.902203"
       y2="17.20026" />
    <linearGradient
       inkscape:collect="always"
       id="linearGradient3366">
      <stop
         style="stop-color:#e5edae;stop-opacity:1;"
         offset="0"
         id="stop3368" />
      <stop
         style="stop-color:#e5edae;stop-opacity:0;"
         offset="1"
         id="stop3370" />
    </linearGradient>
    <linearGradient
       inkscape:collect="always"
       xlink:href="#linearGradient3992"
       id="linearGradient3538"
       gradientUnits="userSpaceOnUse"
       x1="19.663462"
       y1="13.089741"
       x2="23.287384"
       y2="5.046401" />
    <linearGradient
       inkscape:collect="always"
       xlink:href="#linearGradient3316"
       id="linearGradient3540"
       gradientUnits="userSpaceOnUse"
       x1="17.496838"
       y1="4.0984344"
       x2="17.321375"
       y2="6.2179689" />
    <linearGradient
       inkscape:collect="always"
       id="linearGradient3316">
      <stop
         style="stop-color:#459743;stop-opacity:1;"
         offset="0"
         id="stop3318" />
      <stop
         style="stop-color:#459743;stop-opacity:0;"
         offset="1"
         id="stop3320" />
    </linearGradient>
    <linearGradient
       inkscape:collect="always"
       xlink:href="#linearGradient3316"
       id="linearGradient3542"
       gradientUnits="userSpaceOnUse"
       x1="19.339172"
       y1="4.7166319"
       x2="18.286409"
       y2="6.3062825" />
    <linearGradient
       inkscape:collect="always"
       xlink:href="#linearGradient3330"
       id="linearGradient3544"
       gradientUnits="userSpaceOnUse"
       x1="19.514631"
       y1="15.66756"
       x2="21.79562"
       y2="11.516805" />
    <linearGradient
       inkscape:collect="always"
       id="linearGradient3330">
      <stop
         style="stop-color:#e6edae;stop-opacity:1;"
         offset="0"
         id="stop3332" />
      <stop
         style="stop-color:#e6edae;stop-opacity:0;"
         offset="1"
         id="stop3334" />
    </linearGradient>
    <linearGradient
       inkscape:collect="always"
       xlink:href="#linearGradient3992"
       id="linearGradient3552"
       gradientUnits="userSpaceOnUse"
       x1="17.550945"
       y1="12.030865"
       x2="20.646738"
       y2="6.9876728" />
    <linearGradient
       inkscape:collect="always"
       xlink:href="#linearGradient3306"
       id="linearGradient3554"
       gradientUnits="userSpaceOnUse"
       x1="19.55179"
       y1="5.0687752"
       x2="18.759596"
       y2="6.3482499" />
    <linearGradient
       inkscape:collect="always"
       id="linearGradient3306">
      <stop
         style="stop-color:#46873f;stop-opacity:1;"
         offset="0"
         id="stop3308" />
      <stop
         style="stop-color:#46873f;stop-opacity:0;"
         offset="1"
         id="stop3310" />
    </linearGradient>
    <linearGradient
       inkscape:collect="always"
       xlink:href="#linearGradient3346"
       id="linearGradient3556"
       gradientUnits="userSpaceOnUse"
       x1="20.123928"
       y1="15.569291"
       x2="21.972382"
       y2="10.980831" />
    <linearGradient
       inkscape:collect="always"
       id="linearGradient3346">
      <stop
         style="stop-color:#e6eead;stop-opacity:1;"
         offset="0"
         id="stop3348" />
      <stop
         style="stop-color:#e6eead;stop-opacity:0;"
         offset="1"
         id="stop3350" />
    </linearGradient>
    <linearGradient
       inkscape:collect="always"
       xlink:href="#linearGradient3992"
       id="linearGradient5109"
       gradientUnits="userSpaceOnUse"
       x1="17.160885"
       y1="21.540094"
       x2="13.205508"
       y2="16.899706" />
    <linearGradient
       inkscape:collect="always"
       xlink:href="#linearGradient3356"
       id="linearGradient5111"
       gradientUnits="userSpaceOnUse"
       x1="11.656183"
       y1="18.171713"
       x2="13.586248"
       y2="19.23148" />
    <linearGradient
       inkscape:collect="always"
       xlink:href="#linearGradient3366"
       id="linearGradient5113"
       gradientUnits="userSpaceOnUse"
       x1="19.902828"
       y1="19.23148"
       x2="14.902203"
       y2="17.20026" />
  </defs>
  <sodipodi:namedview
     pagecolor="#ffffff"
     bordercolor="#666666"
     borderopacity="1"
     objecttolerance="10"
     gridtolerance="10"
     guidetolerance="10"
     inkscape:pageopacity="0"
     inkscape:pageshadow="2"
     inkscape:window-width="3840"
     inkscape:window-height="2065"
     id="namedview4"
     showgrid="false"
     inkscape:zoom="2.2138166"
     inkscape:cx="-42.695765"
     inkscape:cy="121.30016"
     inkscape:window-x="0"
     inkscape:window-y="0"
     inkscape:window-maximized="1"
     inkscape:current-layer="svg2" />
  <circle
     style="opacity:1;fill:none;fill-opacity:1;stroke:#c5cd77;stroke-width:10.67797947;stroke-linecap:round;stroke-linejoin:round;stroke-miterlimit:4;stroke-dasharray:none;stroke-opacity:1;paint-order:stroke fill markers"
     id="path3096"
     cx="108"
     cy="33"
     r="0" />
  <g
     transform="matrix(1.25,0,0,-1.25,432.53802,134.169)"
     id="g1985">
    <path
       inkscape:connector-curvature="0"
       id="path1983"
       style="fill:#ffffff;fill-opacity:1;fill-rule:nonzero;stroke:none"
       d="m 0,0 c -14.768,-19.276 -38.038,-31.691 -64.194,-31.691 -26.156,0 -49.405,12.415 -64.193,31.691 -10.459,13.622 -16.686,30.683 -16.686,49.208 0,44.68 36.219,80.879 80.879,80.879 44.681,0 80.9,-36.199 80.9,-80.879 C 16.706,30.683 10.478,13.622 0.02,0 Z m -64.194,133.804 c -46.716,0 -84.596,-37.879 -84.596,-84.596 0,-46.717 37.88,-84.596 84.596,-84.596 46.737,0 84.597,37.879 84.597,84.596 0,46.717 -37.86,84.596 -84.597,84.596" />
  </g>
  <circle
     r="0"
     cy="33"
     cx="108"
     id="ellipse3261"
     style="opacity:1;fill:#e4e4e4;fill-opacity:1;stroke:none;stroke-width:2.46783352;stroke-linecap:round;stroke-linejoin:round;stroke-miterlimit:4;stroke-dasharray:none;stroke-opacity:1;paint-order:stroke fill markers" />
  <g
     transform="translate(-396.2269,-156.50346)"
     id="g7259">
    <path
       d="m 533.858,227.00346 c 0,-36.92956 -30.05563,-66.8669 -67.13109,-66.8669 -37.07548,0 -67.1311,29.93734 -67.1311,66.8669 0,36.92956 30.05562,66.86691 67.1311,66.86691 37.07546,0 67.13109,-29.93735 67.13109,-66.86691"
       style="fill:#92c83e;fill-opacity:1;fill-rule:nonzero;stroke:none;stroke-width:0.77896607"
       id="path22-0"
       inkscape:connector-curvature="0" />
    <ellipse
       ry="23.544598"
       rx="23.637623"
       cy="227.00346"
       cx="466.7269"
       id="path3164-6"
       style="opacity:1;fill:#c8e29c;fill-opacity:1;stroke:none;stroke-width:2.1211679;stroke-linecap:round;stroke-linejoin:round;stroke-miterlimit:4;stroke-dasharray:none;stroke-opacity:1;paint-order:stroke fill markers" />
    <ellipse
       ry="17.57291"
       rx="17.642342"
       style="opacity:1;fill:#f0f0f0;fill-opacity:1;stroke:none;stroke-width:1.58316958;stroke-linecap:round;stroke-linejoin:round;stroke-miterlimit:4;stroke-dasharray:none;stroke-opacity:1;paint-order:stroke fill markers"
       id="circle3263-2"
       cx="466.7269"
       cy="227.00346" />
    <path
       inkscape:connector-curvature="0"
       id="rect1644-6"
       d="m 465.98987,158.35295 c -21.96129,0 -41.43529,10.8478 -53.55432,27.57216 h 107.10863 c -12.11903,-16.72436 -31.59303,-27.57216 -53.55431,-27.57216 z"
       style="opacity:1;fill:#1e1e1e;fill-opacity:1;stroke:none;stroke-width:0.31246316;stroke-linecap:round;stroke-linejoin:round;stroke-miterlimit:4;stroke-dasharray:none;stroke-opacity:1;paint-order:stroke fill markers" />
    <g
       transform="matrix(0.8205503,0,0,-0.81732106,519.3929,267.21398)"
       id="g114-1">
      <path
         inkscape:connector-curvature="0"
         id="path116-8"
         style="fill:#ffffff;fill-opacity:1;fill-rule:nonzero;stroke:none"
         d="m 0,0 c -14.768,-19.276 -38.038,-31.691 -64.194,-31.691 -26.156,0 -49.405,12.415 -64.193,31.691 -10.459,13.622 -16.686,30.683 -16.686,49.208 0,44.68 36.219,80.879 80.879,80.879 44.681,0 80.9,-36.199 80.9,-80.879 C 16.706,30.683 10.478,13.622 0.02,0 Z m -64.194,133.804 c -46.716,0 -84.596,-37.879 -84.596,-84.596 0,-46.717 37.88,-84.596 84.596,-84.596 46.737,0 84.597,37.879 84.597,84.596 0,46.717 -37.86,84.596 -84.597,84.596" />
    </g>
    <g
       style="opacity:0.98999999;fill:#c6c6c6;fill-opacity:1;stroke:none;stroke-opacity:1"
       transform="matrix(0.52944357,0,0,-0.52735996,466.72159,238.9018)"
       id="g122-7">
      <path
         inkscape:connector-curvature="0"
         id="path124-9"
         style="fill:#c6c6c6;fill-opacity:1;fill-rule:nonzero;stroke:none;stroke-opacity:1"
         d="m 0,0 c -12.455,0 -22.558,10.122 -22.558,22.577 0,12.456 10.103,22.558 22.558,22.558 12.475,0 22.577,-10.102 22.577,-22.558 C 22.577,10.122 12.475,0 0,0 m 0,46.697 c -13.325,0 -24.12,-10.795 -24.12,-24.12 0,-13.325 10.795,-24.119 24.12,-24.119 13.325,0 24.139,10.794 24.139,24.119 0,13.325 -10.814,24.12 -24.139,24.12" />
    </g>
    <rect
       y="185.85249"
       x="412.92105"
       height="0.65978462"
       width="108.10227"
       id="rect2555-2"
       style="opacity:1;fill:#ffffff;fill-opacity:1;stroke:none;stroke-width:0.24415898;stroke-linecap:round;stroke-linejoin:round;stroke-miterlimit:4;stroke-dasharray:none;stroke-opacity:1;paint-order:stroke fill markers" />
    <ellipse
       ry="9.1752234"
       rx="9.2114744"
       style="opacity:1;fill:#ffffff;fill-opacity:1;stroke:none;stroke-width:0.82660949;stroke-linecap:round;stroke-linejoin:round;stroke-miterlimit:4;stroke-dasharray:none;stroke-opacity:1;paint-order:stroke fill markers"
       id="circle3168-0"
       cx="466.7269"
       cy="227.00346" />
    <path
       inkscape:connector-curvature="0"
       id="path3174-2"
       style="fill:none;fill-opacity:1;fill-rule:nonzero;stroke:#919191;stroke-width:0.96110106;stroke-miterlimit:4;stroke-dasharray:none;stroke-opacity:1"
       d="m 536.5185,227.00346 c 0,-38.39313 -31.24677,-69.51694 -69.79159,-69.51694 -38.54483,0 -69.7916,31.12381 -69.7916,69.51694 0,38.39313 31.24677,69.51694 69.7916,69.51694 38.54482,0 69.79159,-31.12381 69.79159,-69.51694" />
    <g
       id="g4160"
       transform="matrix(0.49330395,0,0,0.49330395,451.16304,183.017)">
      <g
         id="g3489">
        <g
           id="g3484">
          <ellipse
             ry="14.758333"
             rx="14.35"
             cy="17.391666"
             cx="23.333334"
             transform="matrix(1.1755978,0,0,1.1301272,4.1196441,-37.63611)"
             id="path3033"
             style="fill:#666666;fill-opacity:1;stroke:none" />
          <ellipse
             ry="14.758333"
             rx="14.35"
             cy="17.391666"
             cx="23.333334"
             style="fill:url(#radialGradient3528);fill-opacity:1;stroke:none"
             id="path3035"
             transform="matrix(1.1755978,0,0,1.1301272,4.1196441,-37.63611)" />
          <ellipse
             ry="14.758333"
             rx="14.35"
             cy="17.391666"
             cx="23.333334"
             transform="matrix(1.1755978,0,0,1.1301272,4.1196441,-37.63611)"
             id="path3290"
             style="fill:url(#radialGradient3530);fill-opacity:1;stroke:none" />
        </g>
        <g
           id="g4126"
           transform="translate(-4.7343777,9.5517766)">
          <g
             id="g4010"
             transform="matrix(1.0075011,0,0,1.0008426,-0.23709798,0.02715301)">
            <g
               id="g3951" />
          </g>
          <g
             id="g3427"
             transform="translate(4.7499999,-9.4999998)">
            <g
               id="g3378"
               transform="matrix(1.0075011,0,0,1.0008426,-0.237093,0.0271527)">
              <g
                 id="g3917"
                 transform="translate(1.334375,-34.927083)">
                <path
                   id="path3900"
                   transform="translate(8.2169271,-1.0729817)"
                   d="m 17.75,10.65625 c -1.847688,2.256035 -9.5926641,11.425091 -8.90625,17.625 0.4783172,0.610018 1.0047273,1.180327 1.5625,1.71875 -0.08129,-4.745696 5.4515,-9.824588 9.769368,-13.658449 z"
                   style="fill:#00a54d;fill-opacity:1;stroke:none"
                   inkscape:connector-curvature="0"
                   sodipodi:nodetypes="ccccc" />
              </g>
              <g
                 style="fill:#97ca43;fill-opacity:1"
                 transform="translate(1.334375,-34.927083)"
                 id="g3988">
                <path
                   sodipodi:nodetypes="ccccc"
                   inkscape:connector-curvature="0"
                   style="fill:url(#linearGradient5109);fill-opacity:1;stroke:none"
                   d="m 17.75,10.65625 c -1.847688,2.256035 -9.5926641,11.425091 -8.90625,17.625 0.4783172,0.610018 1.0047273,1.180327 1.5625,1.71875 -0.08129,-4.745696 5.4515,-9.824588 9.769368,-13.658449 z"
                   transform="translate(8.2169271,-1.0729817)"
                   id="path3990" />
                <path
                   id="path3354"
                   transform="translate(8.2169271,-1.0729817)"
                   d="m 17.75,10.65625 c -1.847688,2.256035 -9.5926641,11.425091 -8.90625,17.625 0.4783172,0.610018 1.0047273,1.180327 1.5625,1.71875 -0.08129,-4.745696 5.4515,-9.824588 9.769368,-13.658449 z"
                   style="fill:url(#linearGradient5111);fill-opacity:1;stroke:none"
                   inkscape:connector-curvature="0"
                   sodipodi:nodetypes="ccccc" />
                <path
                   sodipodi:nodetypes="ccccc"
                   inkscape:connector-curvature="0"
                   style="fill:url(#linearGradient5113);fill-opacity:1;stroke:none"
                   d="m 17.75,10.65625 c -1.847688,2.256035 -9.5926641,11.425091 -8.90625,17.625 0.4783172,0.610018 1.0047273,1.180327 1.5625,1.71875 -0.08129,-4.745696 5.4515,-9.824588 9.769368,-13.658449 z"
                   transform="translate(8.2169271,-1.0729817)"
                   id="path3364" />
              </g>
            </g>
            <g
               transform="matrix(1.0075011,0,0,1.0008426,0.968067,-34.89797)"
               id="g3888">
              <g
                 id="g3876">
                <path
                   sodipodi:nodetypes="cccccccc"
                   inkscape:connector-curvature="0"
                   transform="translate(8.2169271,-1.0729817)"
                   id="path3089"
                   d="m 13.34375,3.75 c -0.965665,0.5849225 -1.862933,1.2722918 -2.6875,2.03125 2.656255,0.5079752 5.32084,2.8624365 6.78125,4.8125 1.272411,2.001434 1.963367,3.836737 2.861547,5.731248 0.608132,-0.518349 1.226492,-1.046358 1.896265,-1.586717 l -0.0039,-8.2265622 C 20.212403,5.2739256 16.941625,3.6447553 13.375,3.75 c -0.0076,0.00461 -0.02361,-0.00463 -0.03125,0 z"
                   style="fill:#02a74d;fill-opacity:1;stroke:none" />
                <path
                   style="fill:url(#linearGradient3538);fill-opacity:1;stroke:none"
                   d="m 13.34375,3.75 c -0.965665,0.5849225 -1.862933,1.2722918 -2.6875,2.03125 2.656255,0.5079752 5.32084,2.8624365 6.78125,4.8125 1.272411,2.001434 1.963367,3.836737 2.861547,5.731248 0.608132,-0.518349 1.226492,-1.046358 1.896265,-1.586717 l -0.0039,-8.2265622 C 20.212403,5.2739256 16.941625,3.6447553 13.375,3.75 c -0.0076,0.00461 -0.02361,-0.00463 -0.03125,0 z"
                   id="path4000"
                   transform="translate(8.2169271,-1.0729817)"
                   inkscape:connector-curvature="0"
                   sodipodi:nodetypes="cccccccc" />
                <path
                   sodipodi:nodetypes="cccccccc"
                   inkscape:connector-curvature="0"
                   transform="translate(8.2169271,-1.0729817)"
                   id="path3314"
                   d="m 13.34375,3.75 c -0.965665,0.5849225 -1.862933,1.2722918 -2.6875,2.03125 2.656255,0.5079752 5.32084,2.8624365 6.78125,4.8125 1.272411,2.001434 1.963367,3.836737 2.861547,5.731248 0.608132,-0.518349 1.226492,-1.046358 1.896265,-1.586717 l -0.0039,-8.2265622 C 20.212403,5.2739256 16.941625,3.6447553 13.375,3.75 c -0.0076,0.00461 -0.02361,-0.00463 -0.03125,0 z"
                   style="fill:url(#linearGradient3540);fill-opacity:1;stroke:none" />
                <path
                   style="fill:url(#linearGradient3542);fill-opacity:1;stroke:none"
                   d="m 13.34375,3.75 c -0.965665,0.5849225 -1.862933,1.2722918 -2.6875,2.03125 2.656255,0.5079752 5.32084,2.8624365 6.78125,4.8125 1.272411,2.001434 1.963367,3.836737 2.861547,5.731248 0.608132,-0.518349 1.226492,-1.046358 1.896265,-1.586717 l -0.0039,-8.2265622 C 20.212403,5.2739256 16.941625,3.6447553 13.375,3.75 c -0.0076,0.00461 -0.02361,-0.00463 -0.03125,0 z"
                   id="path3324"
                   transform="translate(8.2169271,-1.0729817)"
                   inkscape:connector-curvature="0"
                   sodipodi:nodetypes="cccccccc" />
                <path
                   sodipodi:nodetypes="cccccccc"
                   inkscape:connector-curvature="0"
                   transform="translate(8.2169271,-1.0729817)"
                   id="path3328"
                   d="m 13.34375,3.75 c -0.965665,0.5849225 -1.862933,1.2722918 -2.6875,2.03125 2.656255,0.5079752 5.32084,2.8624365 6.78125,4.8125 1.272411,2.001434 1.963367,3.836737 2.861547,5.731248 0.608132,-0.518349 1.226492,-1.046358 1.896265,-1.586717 l -0.0039,-8.2265622 C 20.212403,5.2739256 16.941625,3.6447553 13.375,3.75 c -0.0076,0.00461 -0.02361,-0.00463 -0.03125,0 z"
                   style="fill:url(#linearGradient3544);fill-opacity:1;stroke:none" />
              </g>
            </g>
            <g
               transform="matrix(-1.0075011,0,0,1.0008426,63.322778,0.0271527)"
               id="g3386">
              <g
                 transform="translate(1.334375,-34.927083)"
                 id="g3388">
                <path
                   sodipodi:nodetypes="ccccc"
                   inkscape:connector-curvature="0"
                   style="fill:#00a54d;fill-opacity:1;stroke:none"
                   d="m 17.75,10.65625 c -1.847688,2.256035 -9.5926641,11.425091 -8.90625,17.625 0.4783172,0.610018 1.0047273,1.180327 1.5625,1.71875 -0.08129,-4.745696 5.4515,-9.824588 9.769368,-13.658449 z"
                   transform="translate(8.2169271,-1.0729817)"
                   id="path3390" />
              </g>
              <g
                 id="g3392"
                 transform="translate(1.334375,-34.927083)"
                 style="fill:#97ca43;fill-opacity:1">
                <path
                   id="path3394"
                   transform="translate(8.2169271,-1.0729817)"
                   d="m 17.75,10.65625 c -1.847688,2.256035 -9.5926641,11.425091 -8.90625,17.625 0.4783172,0.610018 1.0047273,1.180327 1.5625,1.71875 -0.08129,-4.745696 5.4515,-9.824588 9.769368,-13.658449 z"
                   style="fill:url(#linearGradient8908);fill-opacity:1;stroke:none"
                   inkscape:connector-curvature="0"
                   sodipodi:nodetypes="ccccc" />
                <path
                   sodipodi:nodetypes="ccccc"
                   inkscape:connector-curvature="0"
                   style="fill:url(#linearGradient8910);fill-opacity:1;stroke:none"
                   d="m 17.75,10.65625 c -1.847688,2.256035 -9.5926641,11.425091 -8.90625,17.625 0.4783172,0.610018 1.0047273,1.180327 1.5625,1.71875 -0.08129,-4.745696 5.4515,-9.824588 9.769368,-13.658449 z"
                   transform="translate(8.2169271,-1.0729817)"
                   id="path3396" />
                <path
                   id="path3398"
                   transform="translate(8.2169271,-1.0729817)"
                   d="m 17.75,10.65625 c -1.847688,2.256035 -9.5926641,11.425091 -8.90625,17.625 0.4783172,0.610018 1.0047273,1.180327 1.5625,1.71875 -0.08129,-4.745696 5.4515,-9.824588 9.769368,-13.658449 z"
                   style="fill:url(#linearGradient8912);fill-opacity:1;stroke:none"
                   inkscape:connector-curvature="0"
                   sodipodi:nodetypes="ccccc" />
              </g>
            </g>
            <g
               transform="matrix(-1.0041673,0,0,1.0016853,63.252358,0.05430602)"
               id="g4021">
              <g
                 id="g4023">
                <g
                   id="g4033"
                   transform="translate(1.196189,-34.89572)">
                  <g
                     id="g4035">
                    <path
                       style="fill:#02a74d;fill-opacity:1;stroke:none"
                       d="m 13.34375,3.75 c -0.965665,0.5849225 -1.862933,1.2722918 -2.6875,2.03125 2.656255,0.5079752 5.32084,2.8624365 6.78125,4.8125 1.272411,2.001434 1.963367,3.836737 2.861547,5.731248 0.608132,-0.518349 1.226492,-1.046358 1.896265,-1.586717 l -0.0039,-8.2265622 C 20.212403,5.2739256 16.941625,3.6447553 13.375,3.75 c -0.0076,0.00461 -0.02361,-0.00463 -0.03125,0 z"
                       id="path4037"
                       transform="translate(8.2169271,-1.0729817)"
                       inkscape:connector-curvature="0"
                       sodipodi:nodetypes="cccccccc" />
                    <path
                       sodipodi:nodetypes="cccccccc"
                       inkscape:connector-curvature="0"
                       transform="translate(8.2169271,-1.0729817)"
                       id="path4039"
                       d="m 13.34375,3.75 c -0.965665,0.5849225 -1.862933,1.2722918 -2.6875,2.03125 2.656255,0.5079752 5.32084,2.8624365 6.78125,4.8125 1.272411,2.001434 1.963367,3.836737 2.861547,5.731248 0.608132,-0.518349 1.226492,-1.046358 1.896265,-1.586717 l -0.0039,-8.2265622 C 20.212403,5.2739256 16.941625,3.6447553 13.375,3.75 c -0.0076,0.00461 -0.02361,-0.00463 -0.03125,0 z"
                       style="fill:url(#linearGradient3552);fill-opacity:1;stroke:none" />
                    <path
                       style="fill:url(#linearGradient3554);fill-opacity:1;stroke:none"
                       d="m 13.34375,3.75 c -0.965665,0.5849225 -1.862933,1.2722918 -2.6875,2.03125 2.656255,0.5079752 5.32084,2.8624365 6.78125,4.8125 1.272411,2.001434 1.963367,3.836737 2.861547,5.731248 0.608132,-0.518349 1.226492,-1.046358 1.896265,-1.586717 l -0.0039,-8.2265622 C 20.212403,5.2739256 16.941625,3.6447553 13.375,3.75 c -0.0076,0.00461 -0.02361,-0.00463 -0.03125,0 z"
                       id="path3304"
                       transform="translate(8.2169271,-1.0729817)"
                       inkscape:connector-curvature="0"
                       sodipodi:nodetypes="cccccccc" />
                    <path
                       sodipodi:nodetypes="cccccccc"
                       inkscape:connector-curvature="0"
                       transform="translate(8.2169271,-1.0729817)"
                       id="path3344"
                       d="m 13.34375,3.75 c -0.965665,0.5849225 -1.862933,1.2722918 -2.6875,2.03125 2.656255,0.5079752 5.32084,2.8624365 6.78125,4.8125 1.272411,2.001434 1.963367,3.836737 2.861547,5.731248 0.608132,-0.518349 1.226492,-1.046358 1.896265,-1.586717 l -0.0039,-8.2265622 C 20.212403,5.2739256 16.941625,3.6447553 13.375,3.75 c -0.0076,0.00461 -0.02361,-0.00463 -0.03125,0 z"
                       style="fill:url(#linearGradient3556);fill-opacity:1;stroke:none" />
                  </g>
                </g>
              </g>
            </g>
          </g>
        </g>
      </g>
    </g>
    <g
       style="fill:#464646;fill-opacity:1"
       transform="translate(26.836985,-65.969816)"
       id="g8997">
      <path
         inkscape:connector-curvature="0"
         style="fill:#464646;fill-opacity:1;stroke-width:0.55137223"
         d="m 443.73444,339.01016 -3.55214,-4.82559 -3.55108,4.82559 h -1.46241 l 4.27151,-5.82979 -3.90052,-5.29592 h 1.46296 l 3.17955,4.31944 3.17792,-4.31944 h 1.46082 l -3.89891,5.29538 4.27313,5.83033 h -1.4608 z m -27.68975,-0.002 -4.27475,-5.82818 3.89945,-5.29538 h -1.46136 l -3.17954,4.32267 -3.17631,-4.32267 h -1.45974 l 3.89945,5.29538 -4.27421,5.82818 h 1.46297 l 3.54946,-4.82343 3.55107,4.82343 h 1.4635 z m 9.09064,-3.24766 c 0,2.00357 -1.51843,3.24981 -3.96676,3.24981 l -4.51651,-0.002 v -5.21166 h -2.31103 c 0.16746,-0.25091 0.61114,-0.86286 0.80499,-1.11539 h 1.50604 v -4.79651 h 4.51651 c 3.354,0 3.61569,2.31534 3.61569,3.02716 0,0.96087 -0.52822,1.78846 -1.33697,2.22649 0.24553,0.11227 0.49752,0.26465 0.72906,0.46415 0.62945,0.53818 0.95898,1.28204 0.95898,2.1581 m -7.23407,-3.07939 h 3.26731 c 1.50443,0 2.36649,-0.69756 2.36649,-1.86654 0,-1.54696 -1.48182,-1.76988 -2.36649,-1.76988 h -3.26731 z m 5.9881,3.05624 c 0,-1.59677 -1.47967,-1.93976 -2.72079,-1.93976 h -3.26731 v 4.05048 h 3.26731 c 1.01713,0 2.72079,-0.27703 2.72079,-2.11072 m 12.42041,-2.29703 c 0,3.42562 -2.17695,5.81364 -5.29726,5.81364 -3.12463,0 -5.30858,-2.38802 -5.30858,-5.81364 0,-3.4213 2.18395,-5.81148 5.30858,-5.81148 3.12031,0 5.29726,2.39018 5.29726,5.81148 m -1.2632,0 c 0,-2.72993 -1.65951,-4.63604 -4.03407,-4.63604 -2.38048,0 -4.0486,1.90611 -4.0486,4.63604 0,2.72994 1.66812,4.63821 4.0486,4.63821 2.37456,0 4.03407,-1.90827 4.03407,-4.63821"
         id="path3007-2" />
      <path
         inkscape:connector-curvature="0"
         style="fill:#464646;fill-opacity:1;stroke-width:0.55137223"
         d="m 469.60803,327.62276 c -2.6411,0 -4.15737,2.12607 -4.15737,5.83248 0,3.70399 1.51627,5.83248 4.15737,5.83248 1.50604,0 2.62494,-0.65798 3.33569,-1.94703 0.67521,-1.23116 0.81844,-2.79321 0.81844,-3.88545 0,-1.75291 -0.40603,-5.83248 -4.15414,-5.83248 m 0,10.66695 c -0.75384,0 -1.37951,-0.24607 -1.86196,-0.72448 -1.05967,-1.06478 -1.21905,-3.03039 -1.21905,-4.10998 0,-1.45409 0.30153,-4.8334 3.08101,-4.8334 2.77893,0 3.07723,3.37931 3.07723,4.8334 -5e-5,1.45381 -0.29835,4.83446 -3.07726,4.83446 m -8.92533,-6.81488 c -1.20613,0 -2.30834,0.58825 -2.98625,1.558 0.14215,-2.11233 0.8206,-4.41098 3.11278,-4.41098 1.28205,0 2.25287,0.83594 2.47094,2.13172 l 0.0334,0.20327 h 1.06452 l -0.028,-0.27003 c -0.21053,-1.88915 -1.56743,-3.06405 -3.54084,-3.06405 -3.48862,0 -4.2193,3.46115 -4.2193,6.36286 0,3.46869 1.41505,5.30211 4.09276,5.30211 2.19849,0 3.86176,-1.6657 3.86176,-3.8736 0,-2.28464 -1.62611,-3.93929 -3.86176,-3.93929 m 0,6.81488 c -1.57658,0 -2.81394,-1.26428 -2.81394,-2.87559 0,-1.67727 1.21259,-2.93967 2.81394,-2.93967 0.71991,0 1.40105,0.28108 1.9088,0.79098 0.5573,0.5538 0.87176,1.33671 0.87176,2.14869 0,1.61131 -1.22124,2.87559 -2.78057,2.87559 m -4.93004,-2.44267 c 0,2.07814 -1.54643,3.42022 -3.93715,3.42022 -1.29658,0 -2.35033,-0.38606 -3.04708,-1.11647 -0.6666,-0.69918 -0.99075,-1.69935 -0.93744,-2.8947 l 0.008,-0.22777 h 1.07852 l -0.008,0.2493 c -0.0377,0.90029 0.20784,1.65519 0.71183,2.17991 0.51045,0.5293 1.27127,0.81333 2.19364,0.81333 1.42312,0 2.85702,-0.83405 2.85702,-2.42382 0,-0.65664 -0.20085,-1.17921 -0.60361,-1.55478 -0.48568,-0.45607 -1.26858,-0.66283 -2.25772,-0.67333 h -0.75006 c -0.006,-0.26061 -0.006,-0.78183 0,-1.05186 0.27353,-10e-4 0.55676,-0.006 0.74576,-0.006 0.52606,0 1.54911,-0.13219 2.10264,-0.66445 0.33815,-0.32738 0.51637,-0.7751 0.51637,-1.32755 0,-1.29254 -1.31381,-1.96803 -2.6104,-1.96803 -1.2842,0 -2.25341,0.83702 -2.47202,2.13388 l -0.0329,0.20138 h -1.07098 l 0.0312,-0.26869 c 0.21269,-1.88834 1.57281,-3.06513 3.54461,-3.06513 1.20505,0 2.26957,0.37342 2.91948,1.02225 0.50667,0.50964 0.76729,1.16251 0.76729,1.94434 0,1.10759 -0.59822,2.04503 -1.53889,2.47768 1.10665,0.44394 1.78942,1.48611 1.78942,2.79993"
         id="path3009-6" />
    </g>
    <g
       style="fill:#f0f0f0;fill-opacity:1"
       id="g4763-8-8"
       transform="matrix(0.12697976,0,0,0.12768649,414.58139,199.46166)">
      <path
         style="fill:#f0f0f0;fill-opacity:1"
         inkscape:connector-curvature="0"
         d="m 118.895,20.346 c 0,0 -13.743,16.922 -13.04,18.001 0.975,-1.079 -4.934,-18.186 -4.934,-18.186 0,0 -1.233,-3.597 -5.102,-15.387 H 81.81 47.812 22.175 l -2.56,11.068 h 19.299 4.579 c 12.415,0 19.995,5.132 17.878,14.225 -2.287,9.901 -13.123,14.128 -24.665,14.128 H 32.39 L 37.942,19.987 H 18.647 l -8.192,35.368 h 27.398 c 20.612,0 40.166,-11.067 43.692,-25.288 0.617,-2.614 0.53,-9.185 -1.054,-13.053 0,-0.093 -0.091,-0.271 -0.178,-0.537 -0.087,-0.093 -0.178,-0.722 0.178,-0.814 0.172,-0.092 0.525,0.271 0.525,0.358 0,0 0.179,0.456 0.351,0.813 l 17.44,50.315 44.404,-51.216 18.761,-0.092 h 4.579 c 12.424,0 20.09,5.132 17.969,14.225 -2.29,9.901 -13.205,14.128 -24.75,14.128 h -4.405 L 161,19.987 h -19.287 l -8.198,35.368 h 27.398 c 20.611,0 40.343,-11.067 43.604,-25.288 3.347,-14.225 -11.101,-25.293 -31.89,-25.293 h -18.143 -22.727 c -10.834,13.049 -12.862,15.572 -12.862,15.572 z"
         id="path4-8-4-4" />
      <path
         style="fill:#f0f0f0;fill-opacity:1"
         inkscape:connector-curvature="0"
         d="M 99.424,67.329 C 47.281,67.329 5,73.449 5,81.012 5,88.57 47.281,94.69 99.424,94.69 c 52.239,0 94.524,-6.12 94.524,-13.678 0.001,-7.563 -42.284,-13.683 -94.524,-13.683 z m -3.346,18.544 c -11.98,0 -21.58,-2.072 -21.58,-4.595 0,-2.523 9.599,-4.59 21.58,-4.59 11.888,0 21.498,2.066 21.498,4.59 0,2.523 -9.61,4.595 -21.498,4.595 z"
         id="path6-5-3-7" />
      <polygon
         style="fill:#f0f0f0;fill-opacity:1"
         points="190.504,93.653 187.384,99.534 185.968,93.653 185.013,93.653 182.36,102.226 183.337,102.226 185.475,95.617 186.917,102.226 190.276,95.617 190.504,102.226 191.453,102.226 191.453,93.653 "
         id="polygon10-1-2" />
    </g>
  </g>
</svg>
